module github.com/kamalshkeir/kago

go 1.19

require (
	github.com/lib/pq v1.10.6
	golang.org/x/crypto v0.0.0-20220722155217-630584e8d5aa
	golang.org/x/sys v0.0.0-20220731174439-a90be440212d // indirect
	golang.org/x/time v0.0.0-20220722155302-e5dcc9cfc0b9
)

require (
	github.com/beorn7/perks v1.0.1 // indirect
	github.com/cespare/xxhash/v2 v2.1.2 // indirect
	github.com/golang/protobuf v1.5.2 // indirect
	github.com/google/uuid v1.3.0 // indirect
	github.com/kballard/go-shellquote v0.0.0-20180428030007-95032a82bc51 // indirect
	github.com/mattn/go-isatty v0.0.14 // indirect
	github.com/matttproud/golang_protobuf_extensions v1.0.1 // indirect
	github.com/prometheus/client_model v0.2.0 // indirect
	github.com/prometheus/common v0.37.0 // indirect
	github.com/prometheus/procfs v0.8.0 // indirect
	github.com/remyoudompheng/bigfft v0.0.0-20200410134404-eec4a21b6bb0 // indirect
	golang.org/x/mod v0.6.0-dev.0.20220419223038-86c51ed26bb4 // indirect
	golang.org/x/tools v0.1.12 // indirect
	google.golang.org/protobuf v1.28.1 // indirect
	lukechampine.com/uint128 v1.2.0 // indirect
	modernc.org/cc/v3 v3.36.1 // indirect
	modernc.org/ccgo/v3 v3.16.8 // indirect
	modernc.org/libc v1.16.19 // indirect
	modernc.org/mathutil v1.4.1 // indirect
	modernc.org/memory v1.1.1 // indirect
	modernc.org/opt v0.1.3 // indirect
	modernc.org/strutil v1.1.2 // indirect
	modernc.org/token v1.0.0 // indirect
)

require (
	github.com/go-sql-driver/mysql v1.6.0
	github.com/prometheus/client_golang v1.12.2
	golang.org/x/net v0.0.0-20220728211354-c7608f3a8462
	golang.org/x/term v0.0.0-20220722155259-a9ba230a4035
	golang.org/x/text v0.3.7
	modernc.org/sqlite v1.18.0
)
